%YAML 1.1
%TAG !u! tag:unity3d.com,2011:
--- !u!1045 &1
EditorBuildSettings:
  m_ObjectHideFlags: 0
  serializedVersion: 2
  m_Scenes:
  - enabled: 1
    path: Assets/Scenes/MenuScene.unity
    guid: 7161bcc5beeb55c44b4a6f0275007ca3
  - enabled: 1
    path: Assets/Scenes/GameScene.unity
    guid: 2cda990e2423bbf4892e6590ba056729
  m_configObjects: {}
